; RUN: llc < %s -march=arm -mattr=+vfp2 | grep -E {fadds\\W*s\[0-9\]+,\\W*s\[0-9\]+,\\W*s\[0-9\]+} | count 1
; RUN: llc < %s -march=arm -mattr=+neon,+neonfp | grep -E {vadd.f32\\W*d\[0-9\]+,\\W*d\[0-9\]+,\\W*d\[0-9\]+} | count 1
; RUN: llc < %s -march=arm -mattr=+neon,-neonfp | grep -E {fadds\\W*s\[0-9\]+,\\W*s\[0-9\]+,\\W*s\[0-9\]+} | count 1
; RUN: llc < %s -march=arm -mcpu=cortex-a8 | grep -E {vadd.f32\\W*d\[0-9\]+,\\W*d\[0-9\]+,\\W*d\[0-9\]+} | count 1
; RUN: llc < %s -march=arm -mcpu=cortex-a9 | grep -E {fadds\\W*s\[0-9\]+,\\W*s\[0-9\]+,\\W*s\[0-9\]+} | count 1

define float @test(float %a, float %b) {
entry:
	%0 = fadd float %a, %b
	ret float %0
}

