; RUN: llc < %s -march=arm -mattr=+neon > %t
; RUN: grep {vrshl\\.s8} %t | count 2
; RUN: grep {vrshl\\.s16} %t | count 2
; RUN: grep {vrshl\\.s32} %t | count 2
; RUN: grep {vrshl\\.s64} %t | count 2
; RUN: grep {vrshl\\.u8} %t | count 2
; RUN: grep {vrshl\\.u16} %t | count 2
; RUN: grep {vrshl\\.u32} %t | count 2
; RUN: grep {vrshl\\.u64} %t | count 2
; RUN: grep {vrshr\\.s8} %t | count 2
; RUN: grep {vrshr\\.s16} %t | count 2
; RUN: grep {vrshr\\.s32} %t | count 2
; RUN: grep {vrshr\\.s64} %t | count 2
; RUN: grep {vrshr\\.u8} %t | count 2
; RUN: grep {vrshr\\.u16} %t | count 2
; RUN: grep {vrshr\\.u32} %t | count 2
; RUN: grep {vrshr\\.u64} %t | count 2

define <8 x i8> @vrshls8(<8 x i8>* %A, <8 x i8>* %B) nounwind {
	%tmp1 = load <8 x i8>* %A
	%tmp2 = load <8 x i8>* %B
	%tmp3 = call <8 x i8> @llvm.arm.neon.vrshifts.v8i8(<8 x i8> %tmp1, <8 x i8> %tmp2)
	ret <8 x i8> %tmp3
}

define <4 x i16> @vrshls16(<4 x i16>* %A, <4 x i16>* %B) nounwind {
	%tmp1 = load <4 x i16>* %A
	%tmp2 = load <4 x i16>* %B
	%tmp3 = call <4 x i16> @llvm.arm.neon.vrshifts.v4i16(<4 x i16> %tmp1, <4 x i16> %tmp2)
	ret <4 x i16> %tmp3
}

define <2 x i32> @vrshls32(<2 x i32>* %A, <2 x i32>* %B) nounwind {
	%tmp1 = load <2 x i32>* %A
	%tmp2 = load <2 x i32>* %B
	%tmp3 = call <2 x i32> @llvm.arm.neon.vrshifts.v2i32(<2 x i32> %tmp1, <2 x i32> %tmp2)
	ret <2 x i32> %tmp3
}

define <1 x i64> @vrshls64(<1 x i64>* %A, <1 x i64>* %B) nounwind {
	%tmp1 = load <1 x i64>* %A
	%tmp2 = load <1 x i64>* %B
	%tmp3 = call <1 x i64> @llvm.arm.neon.vrshifts.v1i64(<1 x i64> %tmp1, <1 x i64> %tmp2)
	ret <1 x i64> %tmp3
}

define <8 x i8> @vrshlu8(<8 x i8>* %A, <8 x i8>* %B) nounwind {
	%tmp1 = load <8 x i8>* %A
	%tmp2 = load <8 x i8>* %B
	%tmp3 = call <8 x i8> @llvm.arm.neon.vrshiftu.v8i8(<8 x i8> %tmp1, <8 x i8> %tmp2)
	ret <8 x i8> %tmp3
}

define <4 x i16> @vrshlu16(<4 x i16>* %A, <4 x i16>* %B) nounwind {
	%tmp1 = load <4 x i16>* %A
	%tmp2 = load <4 x i16>* %B
	%tmp3 = call <4 x i16> @llvm.arm.neon.vrshiftu.v4i16(<4 x i16> %tmp1, <4 x i16> %tmp2)
	ret <4 x i16> %tmp3
}

define <2 x i32> @vrshlu32(<2 x i32>* %A, <2 x i32>* %B) nounwind {
	%tmp1 = load <2 x i32>* %A
	%tmp2 = load <2 x i32>* %B
	%tmp3 = call <2 x i32> @llvm.arm.neon.vrshiftu.v2i32(<2 x i32> %tmp1, <2 x i32> %tmp2)
	ret <2 x i32> %tmp3
}

define <1 x i64> @vrshlu64(<1 x i64>* %A, <1 x i64>* %B) nounwind {
	%tmp1 = load <1 x i64>* %A
	%tmp2 = load <1 x i64>* %B
	%tmp3 = call <1 x i64> @llvm.arm.neon.vrshiftu.v1i64(<1 x i64> %tmp1, <1 x i64> %tmp2)
	ret <1 x i64> %tmp3
}

define <16 x i8> @vrshlQs8(<16 x i8>* %A, <16 x i8>* %B) nounwind {
	%tmp1 = load <16 x i8>* %A
	%tmp2 = load <16 x i8>* %B
	%tmp3 = call <16 x i8> @llvm.arm.neon.vrshifts.v16i8(<16 x i8> %tmp1, <16 x i8> %tmp2)
	ret <16 x i8> %tmp3
}

define <8 x i16> @vrshlQs16(<8 x i16>* %A, <8 x i16>* %B) nounwind {
	%tmp1 = load <8 x i16>* %A
	%tmp2 = load <8 x i16>* %B
	%tmp3 = call <8 x i16> @llvm.arm.neon.vrshifts.v8i16(<8 x i16> %tmp1, <8 x i16> %tmp2)
	ret <8 x i16> %tmp3
}

define <4 x i32> @vrshlQs32(<4 x i32>* %A, <4 x i32>* %B) nounwind {
	%tmp1 = load <4 x i32>* %A
	%tmp2 = load <4 x i32>* %B
	%tmp3 = call <4 x i32> @llvm.arm.neon.vrshifts.v4i32(<4 x i32> %tmp1, <4 x i32> %tmp2)
	ret <4 x i32> %tmp3
}

define <2 x i64> @vrshlQs64(<2 x i64>* %A, <2 x i64>* %B) nounwind {
	%tmp1 = load <2 x i64>* %A
	%tmp2 = load <2 x i64>* %B
	%tmp3 = call <2 x i64> @llvm.arm.neon.vrshifts.v2i64(<2 x i64> %tmp1, <2 x i64> %tmp2)
	ret <2 x i64> %tmp3
}

define <16 x i8> @vrshlQu8(<16 x i8>* %A, <16 x i8>* %B) nounwind {
	%tmp1 = load <16 x i8>* %A
	%tmp2 = load <16 x i8>* %B
	%tmp3 = call <16 x i8> @llvm.arm.neon.vrshiftu.v16i8(<16 x i8> %tmp1, <16 x i8> %tmp2)
	ret <16 x i8> %tmp3
}

define <8 x i16> @vrshlQu16(<8 x i16>* %A, <8 x i16>* %B) nounwind {
	%tmp1 = load <8 x i16>* %A
	%tmp2 = load <8 x i16>* %B
	%tmp3 = call <8 x i16> @llvm.arm.neon.vrshiftu.v8i16(<8 x i16> %tmp1, <8 x i16> %tmp2)
	ret <8 x i16> %tmp3
}

define <4 x i32> @vrshlQu32(<4 x i32>* %A, <4 x i32>* %B) nounwind {
	%tmp1 = load <4 x i32>* %A
	%tmp2 = load <4 x i32>* %B
	%tmp3 = call <4 x i32> @llvm.arm.neon.vrshiftu.v4i32(<4 x i32> %tmp1, <4 x i32> %tmp2)
	ret <4 x i32> %tmp3
}

define <2 x i64> @vrshlQu64(<2 x i64>* %A, <2 x i64>* %B) nounwind {
	%tmp1 = load <2 x i64>* %A
	%tmp2 = load <2 x i64>* %B
	%tmp3 = call <2 x i64> @llvm.arm.neon.vrshiftu.v2i64(<2 x i64> %tmp1, <2 x i64> %tmp2)
	ret <2 x i64> %tmp3
}

define <8 x i8> @vrshrs8(<8 x i8>* %A) nounwind {
	%tmp1 = load <8 x i8>* %A
	%tmp2 = call <8 x i8> @llvm.arm.neon.vrshifts.v8i8(<8 x i8> %tmp1, <8 x i8> < i8 -8, i8 -8, i8 -8, i8 -8, i8 -8, i8 -8, i8 -8, i8 -8 >)
	ret <8 x i8> %tmp2
}

define <4 x i16> @vrshrs16(<4 x i16>* %A) nounwind {
	%tmp1 = load <4 x i16>* %A
	%tmp2 = call <4 x i16> @llvm.arm.neon.vrshifts.v4i16(<4 x i16> %tmp1, <4 x i16> < i16 -16, i16 -16, i16 -16, i16 -16 >)
	ret <4 x i16> %tmp2
}

define <2 x i32> @vrshrs32(<2 x i32>* %A) nounwind {
	%tmp1 = load <2 x i32>* %A
	%tmp2 = call <2 x i32> @llvm.arm.neon.vrshifts.v2i32(<2 x i32> %tmp1, <2 x i32> < i32 -32, i32 -32 >)
	ret <2 x i32> %tmp2
}

define <1 x i64> @vrshrs64(<1 x i64>* %A) nounwind {
	%tmp1 = load <1 x i64>* %A
	%tmp2 = call <1 x i64> @llvm.arm.neon.vrshifts.v1i64(<1 x i64> %tmp1, <1 x i64> < i64 -64 >)
	ret <1 x i64> %tmp2
}

define <8 x i8> @vrshru8(<8 x i8>* %A) nounwind {
	%tmp1 = load <8 x i8>* %A
	%tmp2 = call <8 x i8> @llvm.arm.neon.vrshiftu.v8i8(<8 x i8> %tmp1, <8 x i8> < i8 -8, i8 -8, i8 -8, i8 -8, i8 -8, i8 -8, i8 -8, i8 -8 >)
	ret <8 x i8> %tmp2
}

define <4 x i16> @vrshru16(<4 x i16>* %A) nounwind {
	%tmp1 = load <4 x i16>* %A
	%tmp2 = call <4 x i16> @llvm.arm.neon.vrshiftu.v4i16(<4 x i16> %tmp1, <4 x i16> < i16 -16, i16 -16, i16 -16, i16 -16 >)
	ret <4 x i16> %tmp2
}

define <2 x i32> @vrshru32(<2 x i32>* %A) nounwind {
	%tmp1 = load <2 x i32>* %A
	%tmp2 = call <2 x i32> @llvm.arm.neon.vrshiftu.v2i32(<2 x i32> %tmp1, <2 x i32> < i32 -32, i32 -32 >)
	ret <2 x i32> %tmp2
}

define <1 x i64> @vrshru64(<1 x i64>* %A) nounwind {
	%tmp1 = load <1 x i64>* %A
	%tmp2 = call <1 x i64> @llvm.arm.neon.vrshiftu.v1i64(<1 x i64> %tmp1, <1 x i64> < i64 -64 >)
	ret <1 x i64> %tmp2
}

define <16 x i8> @vrshrQs8(<16 x i8>* %A) nounwind {
	%tmp1 = load <16 x i8>* %A
	%tmp2 = call <16 x i8> @llvm.arm.neon.vrshifts.v16i8(<16 x i8> %tmp1, <16 x i8> < i8 -8, i8 -8, i8 -8, i8 -8, i8 -8, i8 -8, i8 -8, i8 -8, i8 -8, i8 -8, i8 -8, i8 -8, i8 -8, i8 -8, i8 -8, i8 -8 >)
	ret <16 x i8> %tmp2
}

define <8 x i16> @vrshrQs16(<8 x i16>* %A) nounwind {
	%tmp1 = load <8 x i16>* %A
	%tmp2 = call <8 x i16> @llvm.arm.neon.vrshifts.v8i16(<8 x i16> %tmp1, <8 x i16> < i16 -16, i16 -16, i16 -16, i16 -16, i16 -16, i16 -16, i16 -16, i16 -16 >)
	ret <8 x i16> %tmp2
}

define <4 x i32> @vrshrQs32(<4 x i32>* %A) nounwind {
	%tmp1 = load <4 x i32>* %A
	%tmp2 = call <4 x i32> @llvm.arm.neon.vrshifts.v4i32(<4 x i32> %tmp1, <4 x i32> < i32 -32, i32 -32, i32 -32, i32 -32 >)
	ret <4 x i32> %tmp2
}

define <2 x i64> @vrshrQs64(<2 x i64>* %A) nounwind {
	%tmp1 = load <2 x i64>* %A
	%tmp2 = call <2 x i64> @llvm.arm.neon.vrshifts.v2i64(<2 x i64> %tmp1, <2 x i64> < i64 -64, i64 -64 >)
	ret <2 x i64> %tmp2
}

define <16 x i8> @vrshrQu8(<16 x i8>* %A) nounwind {
	%tmp1 = load <16 x i8>* %A
	%tmp2 = call <16 x i8> @llvm.arm.neon.vrshiftu.v16i8(<16 x i8> %tmp1, <16 x i8> < i8 -8, i8 -8, i8 -8, i8 -8, i8 -8, i8 -8, i8 -8, i8 -8, i8 -8, i8 -8, i8 -8, i8 -8, i8 -8, i8 -8, i8 -8, i8 -8 >)
	ret <16 x i8> %tmp2
}

define <8 x i16> @vrshrQu16(<8 x i16>* %A) nounwind {
	%tmp1 = load <8 x i16>* %A
	%tmp2 = call <8 x i16> @llvm.arm.neon.vrshiftu.v8i16(<8 x i16> %tmp1, <8 x i16> < i16 -16, i16 -16, i16 -16, i16 -16, i16 -16, i16 -16, i16 -16, i16 -16 >)
	ret <8 x i16> %tmp2
}

define <4 x i32> @vrshrQu32(<4 x i32>* %A) nounwind {
	%tmp1 = load <4 x i32>* %A
	%tmp2 = call <4 x i32> @llvm.arm.neon.vrshiftu.v4i32(<4 x i32> %tmp1, <4 x i32> < i32 -32, i32 -32, i32 -32, i32 -32 >)
	ret <4 x i32> %tmp2
}

define <2 x i64> @vrshrQu64(<2 x i64>* %A) nounwind {
	%tmp1 = load <2 x i64>* %A
	%tmp2 = call <2 x i64> @llvm.arm.neon.vrshiftu.v2i64(<2 x i64> %tmp1, <2 x i64> < i64 -64, i64 -64 >)
	ret <2 x i64> %tmp2
}

declare <8 x i8>  @llvm.arm.neon.vrshifts.v8i8(<8 x i8>, <8 x i8>) nounwind readnone
declare <4 x i16> @llvm.arm.neon.vrshifts.v4i16(<4 x i16>, <4 x i16>) nounwind readnone
declare <2 x i32> @llvm.arm.neon.vrshifts.v2i32(<2 x i32>, <2 x i32>) nounwind readnone
declare <1 x i64> @llvm.arm.neon.vrshifts.v1i64(<1 x i64>, <1 x i64>) nounwind readnone

declare <8 x i8>  @llvm.arm.neon.vrshiftu.v8i8(<8 x i8>, <8 x i8>) nounwind readnone
declare <4 x i16> @llvm.arm.neon.vrshiftu.v4i16(<4 x i16>, <4 x i16>) nounwind readnone
declare <2 x i32> @llvm.arm.neon.vrshiftu.v2i32(<2 x i32>, <2 x i32>) nounwind readnone
declare <1 x i64> @llvm.arm.neon.vrshiftu.v1i64(<1 x i64>, <1 x i64>) nounwind readnone

declare <16 x i8> @llvm.arm.neon.vrshifts.v16i8(<16 x i8>, <16 x i8>) nounwind readnone
declare <8 x i16> @llvm.arm.neon.vrshifts.v8i16(<8 x i16>, <8 x i16>) nounwind readnone
declare <4 x i32> @llvm.arm.neon.vrshifts.v4i32(<4 x i32>, <4 x i32>) nounwind readnone
declare <2 x i64> @llvm.arm.neon.vrshifts.v2i64(<2 x i64>, <2 x i64>) nounwind readnone

declare <16 x i8> @llvm.arm.neon.vrshiftu.v16i8(<16 x i8>, <16 x i8>) nounwind readnone
declare <8 x i16> @llvm.arm.neon.vrshiftu.v8i16(<8 x i16>, <8 x i16>) nounwind readnone
declare <4 x i32> @llvm.arm.neon.vrshiftu.v4i32(<4 x i32>, <4 x i32>) nounwind readnone
declare <2 x i64> @llvm.arm.neon.vrshiftu.v2i64(<2 x i64>, <2 x i64>) nounwind readnone
