; RUN: llc < %s -march=arm -mattr=-neon

; Example that requires splitting and expanding a vector shift.
define <2 x i64> @update(<2 x i64> %val) nounwind readnone {
entry:
	%shr = lshr <2 x i64> %val, < i64 2, i64 2 >		; <<2 x i64>> [#uses=1]
	ret <2 x i64> %shr
}
